%YAML 1.1
%TAG !u! tag:unity3d.com,2011:
--- !u!114 &11400000
MonoBehaviour:
  m_ObjectHideFlags: 0
  m_CorrespondingSourceObject: {fileID: 0}
  m_PrefabInstance: {fileID: 0}
  m_PrefabAsset: {fileID: 0}
  m_GameObject: {fileID: 0}
  m_Enabled: 1
  m_EditorHideFlags: 0
  m_Script: {fileID: 11500000, guid: ed3494a0588f73e4fa687b2c175784a9, type: 3}
  m_Name: Level_4
  m_EditorClassIdentifier: 
  LevelString: ... Battle
  rocketExplosionForce: 45
  rocketExplosionRadius: 15
